<svg xmlns="http://www.w3.org/2000/svg" viewBox="0 0 61.327 86.417">
  <defs>
    <style>
      .cls-1 {
        fill: none;
        stroke: #151515;
        stroke-linecap: round;
        stroke-width: 2px;
      }
    </style>
  </defs>
  <g id="Groupe_78" data-name="Groupe 78" transform="translate(-1743.087 -807.497)">
    <line id="Ligne_4" data-name="Ligne 4" class="cls-1" x2="0.25" y2="82" transform="translate(1773.75 808.5)"/>
    <line id="Ligne_5" data-name="Ligne 5" class="cls-1" x2="29.5" y2="27.5" transform="translate(1744.5 865)"/>
    <line id="Ligne_6" data-name="Ligne 6" class="cls-1" x1="29" y2="27.5" transform="translate(1774 865)"/>
  </g>
</svg>
